…
``` r
median_age <- get_acs(
  geography = "county", 
  variables = "B01002_001",
  year = 2020
)
```

    ## Getting data from the 2016-2020 5-year ACS

``` r
median_age
```

    ## # A tibble: 3,221 × 5
    ##    GEOID NAME                     variable   estimate   moe
    ##    <chr> <chr>                    <chr>         <dbl> <dbl>
    ##  1 01001 Autauga County, Alabama  B01002_001     38.6   0.6
    ##  2 01003 Baldwin County, Alabama  B01002_001     43.2   0.4
    ##  3 01005 Barbour County, Alabama  B01002_001     40.1   0.6
    ##  4 01007 Bibb County, Alabama     B01002_001     39.9   1.2
    ##  5 01009 Blount County, Alabama   B01002_001     41     0.5
    ##  6 01011 Bullock County, Alabama  B01002_001     39.7   1.9
    ##  7 01013 Butler County, Alabama   B01002_001     41.2   0.6
    ##  8 01015 Calhoun County, Alabama  B01002_001     39.5   0.4
    ##  9 01017 Chambers County, Alabama B01002_001     41.9   0.7
    ## 10 01019 Cherokee County, Alabama B01002_001     46.8   0.5
    ## # ℹ 3,211 more rows
…
## Splitting columns

-   `separate()`

``` r
separate(
  median_age, 
  NAME, 
  into = c("county", "state"), 
  sep = ", "
)
```

    ## # A tibble: 3,221 × 6
    ##    GEOID county          state   variable   estimate   moe
    ##    <chr> <chr>           <chr>   <chr>         <dbl> <dbl>
    ##  1 01001 Autauga County  Alabama B01002_001     38.6   0.6
    ##  2 01003 Baldwin County  Alabama B01002_001     43.2   0.4
    ##  3 01005 Barbour County  Alabama B01002_001     40.1   0.6
    ##  4 01007 Bibb County     Alabama B01002_001     39.9   1.2
    ##  5 01009 Blount County   Alabama B01002_001     41     0.5
    ##  6 01011 Bullock County  Alabama B01002_001     39.7   1.9
    ##  7 01013 Butler County   Alabama B01002_001     41.2   0.6
    ##  8 01015 Calhoun County  Alabama B01002_001     39.5   0.4
    ##  9 01017 Chambers County Alabama B01002_001     41.9   0.7
    ## 10 01019 Cherokee County Alabama B01002_001     46.8   0.5
    ## # ℹ 3,211 more rows
…
    ## Getting data from the 2016-2020 5-year ACS

``` r
nm_race
```

    ## # A tibble: 198 × 7
    ##    GEOID NAME                    variable estimate   moe summary_est summary_moe
    ##    <chr> <chr>                   <chr>       <dbl> <dbl>       <dbl>       <dbl>
    ##  1 35001 Bernalillo County, New… White      256847  1497      679037          NA
    ##  2 35001 Bernalillo County, New… Black       16355   664      679037          NA
    ##  3 35001 Bernalillo County, New… Native      26898   684      679037          NA
    ##  4 35001 Bernalillo County, New… Asian       17338   690      679037          NA
    ##  5 35001 Bernalillo County, New… HIPI          369   134      679037          NA
    ##  6 35001 Bernalillo County, New… Hispanic   341790    NA      679037          NA
    ##  7 35003 Catron County, New Mex… White        2931   193        3547          NA
    ##  8 35003 Catron County, New Mex… Black          14    31        3547          NA
    ##  9 35003 Catron County, New Mex… Native          0    13        3547          NA
    ## 10 35003 Catron County, New Mex… Asian           0    13        3547          NA
    ## # ℹ 188 more rows

``` r
nm_race_percent <- nm_race |> 
  mutate(percent = 100 * estimate / summary_est) |> 
  select(NAME, variable, percent)
nm_race_percent
```

    ## # A tibble: 198 × 3
    ##    NAME                          variable percent
    ##    <chr>                         <chr>      <dbl>
    ##  1 Bernalillo County, New Mexico White    37.8   
    ##  2 Bernalillo County, New Mexico Black     2.41  
    ##  3 Bernalillo County, New Mexico Native    3.96  
    ##  4 Bernalillo County, New Mexico Asian     2.55  
    ##  5 Bernalillo County, New Mexico HIPI      0.0543
    ##  6 Bernalillo County, New Mexico Hispanic 50.3   
    ##  7 Catron County, New Mexico     White    82.6   
    ##  8 Catron County, New Mexico     Black     0.395 
    ##  9 Catron County, New Mexico     Native    0     
    ## 10 Catron County, New Mexico     Asian     0     
    ## # ℹ 188 more rows

## Grouping

Identify the largest racial or ethnic group in each county.

``` r
largest_group <- nm_race_percent |> 
  group_by(NAME) |> 
  filter(percent == max(percent))
largest_group
```

    ## # A tibble: 33 × 3
    ## # Groups:   NAME [33]
    ##    NAME                          variable percent
    ##    <chr>                         <chr>      <dbl>
    ##  1 Bernalillo County, New Mexico Hispanic    50.3
    ##  2 Catron County, New Mexico     White       82.6
    ##  3 Chaves County, New Mexico     Hispanic    57.6
    ##  4 Cibola County, New Mexico     Native      39.0
    ##  5 Colfax County, New Mexico     Hispanic    49.5
    ##  6 Curry County, New Mexico      White       46.7
    ##  7 De Baca County, New Mexico    Hispanic    64.2
    ##  8 Doña Ana County, New Mexico   Hispanic    68.6
    ##  9 Eddy County, New Mexico       Hispanic    50.0
    ## 10 Grant County, New Mexico      Hispanic    50.4
    ## # ℹ 23 more rows
…
``` r
nm_hh_income_recode <- nm_hh_income |> 
  filter(variable != "B19001_001") |> 
  mutate(incgroup = case_when(
    variable < "B19001_008" ~ "below35k", 
    variable < "b19001_013" ~ "bs35land75k", 
    TRUE ~ "above75k"
  ))
nm_hh_income_recode
```

    ## # A tibble: 528 × 6
    ##    GEOID NAME                          variable   estimate   moe incgroup   
    ##    <chr> <chr>                         <chr>         <dbl> <dbl> <chr>      
    ##  1 35001 Bernalillo County, New Mexico B19001_002    22480   996 below35k   
    ##  2 35001 Bernalillo County, New Mexico B19001_003    15112   906 below35k   
    ##  3 35001 Bernalillo County, New Mexico B19001_004    16054  1015 below35k   
    ##  4 35001 Bernalillo County, New Mexico B19001_005    15622   941 below35k   
    ##  5 35001 Bernalillo County, New Mexico B19001_006    14103   792 below35k   
    ##  6 35001 Bernalillo County, New Mexico B19001_007    14424   761 below35k   
    ##  7 35001 Bernalillo County, New Mexico B19001_008    12523   884 bs35land75k
    ##  8 35001 Bernalillo County, New Mexico B19001_009    11897   747 bs35land75k
    ##  9 35001 Bernalillo County, New Mexico B19001_010    10978   719 bs35land75k
    ## 10 35001 Bernalillo County, New Mexico B19001_011    20832   891 bs35land75k
    ## # ℹ 518 more rows

``` r
nm_group_sums <- nm_hh_income_recode |> 
  group_by(NAME, incgroup) |> 
  summarise(estimate = sum(estimate))
```

    ## `summarise()` has grouped output by 'NAME'. You can override using the
    ## `.groups` argument.

``` r
nm_group_sums
```

    ## # A tibble: 99 × 3
    ## # Groups:   NAME [33]
    ##    NAME                          incgroup    estimate
    ##    <chr>                         <chr>          <dbl>
    ##  1 Bernalillo County, New Mexico above75k       83169
    ##  2 Bernalillo County, New Mexico below35k       97795
    ##  3 Bernalillo County, New Mexico bs35land75k    81556
    ##  4 Catron County, New Mexico     above75k         197
    ##  5 Catron County, New Mexico     below35k         632
    ##  6 Catron County, New Mexico     bs35land75k      596
    ##  7 Chaves County, New Mexico     above75k        6122
    ##  8 Chaves County, New Mexico     below35k       10061
    ##  9 Chaves County, New Mexico     bs35land75k     6970
    ## 10 Cibola County, New Mexico     above75k        1662
    ## # ℹ 89 more rows
…
    ## Getting data from the 2016-2020 5-year ACS

    ## Using the ACS Comparison Profile

``` r
nm_income_compare
```

    ## # A tibble: 52 × 4
    ##    GEOID NAME                          variable estimate
    ##    <chr> <chr>                         <chr>       <dbl>
    ##  1 35001 Bernalillo County, New Mexico income15    52176
    ##  2 35001 Bernalillo County, New Mexico income20    54308
    ##  3 35005 Chaves County, New Mexico     income15    44363
    ##  4 35005 Chaves County, New Mexico     income20    46254
    ##  5 35006 Cibola County, New Mexico     income15    37430
    ##  6 35006 Cibola County, New Mexico     income20    44731
    ##  7 35007 Colfax County, New Mexico     income15    35645
    ##  8 35007 Colfax County, New Mexico     income20    36937
    ##  9 35009 Curry County, New Mexico      income15    44660
    ## 10 35009 Curry County, New Mexico      income20    48903
    ## # ℹ 42 more rows
…
    ## Getting data from the 2012-2016 5-year ACS

    ## Getting data from the 2013-2017 5-year ACS

    ## Getting data from the 2014-2018 5-year ACS

    ## Getting data from the 2015-2019 5-year ACS

``` r
college_by_year |> 
  arrange(NAME, variable, year)
```

    ## # A tibble: 2,640 × 8
    ##    year  GEOID NAME              variable estimate   moe summary_est summary_moe
    ##    <chr> <chr> <chr>             <chr>       <dbl> <dbl>       <dbl>       <dbl>
    ##  1 2010  35001 Bernalillo Count… B15002_…    35156  1093      423230         106
    ##  2 2011  35001 Bernalillo Count… B15002_…    35940  1192      429831          87
    ##  3 2012  35001 Bernalillo Count… B15002_…    36498  1090      435547          71
    ##  4 2013  35001 Bernalillo Count… B15002_…    37433  1371      441184          91
    ##  5 2014  35001 Bernalillo Count… B15002_…    37454  1074      446795          69
    ##  6 2015  35001 Bernalillo Count… B15002_…    37355  1241      451402          84
    ##  7 2016  35001 Bernalillo Count… B15002_…    38441  1154      455336          71
    ##  8 2017  35001 Bernalillo Count… B15002_…    39195  1415      458214          74
    ##  9 2018  35001 Bernalillo Count… B15002_…    39960  1394      463080          86
    ## 10 2019  35001 Bernalillo Count… B15002_…    41122  1382      466135          85
    ## # ℹ 2,630 more rows
…
    ## `summarise()` has grouped output by 'NAME'. You can override using the
    ## `.groups` argument.

``` r
percent_college_by_year
```

    ## # A tibble: 34 × 11
    ## # Groups:   NAME [34]
    ##    NAME    `2010` `2011` `2012` `2013` `2014` `2015` `2016` `2017` `2018` `2019`
    ##    <chr>    <dbl>  <dbl>  <dbl>  <dbl>  <dbl>  <dbl>  <dbl>  <dbl>  <dbl>  <dbl>
    ##  1 Bernal…   31.5  31.6    31.8   32.1   32.3  32.6   32.8    33.4  33.9    34.4
    ##  2 Catron…   21.3  18.8    16.1   18.5   20.7  26.0   24.8    25.8  22.2    15.7
    ##  3 Chaves…   15.7  16.4    17.3   18.4   18.4  18.1   19.3    19.0  17.8    18.0
    ##  4 Cibola…   11.5   9.24   10.2   10.4   11.7  12.0   12.4    12.4  13.4    14.2
    ##  5 Colfax…   19.9  19.6    20.5   19.8   20.6  21.5   22.1    20.5  20.5    21.7
    ##  6 Curry …   18.2  19.2    19.7   20.4   20.4  20.8   19.7    19.9  19.8    19.2
    ##  7 De Bac…   19.7  20.0    21.0   17.9   11.6   9.68   9.54   10.4   9.81   13.0
    ##  8 Do?a A…   25.4  NA      NA     NA     NA    NA     NA      NA    NA      NA  
    ##  9 Doña A…   NA    25.5    26.0   26.6   27.4  27.7   27.5    27.4  27.5    27.1
    ## 10 Eddy C…   15.1  15.7    15.4   16.7   16.8  17.8   17.0    16.2  15.9    16.2
    ## # ℹ 24 more rows
…
    ## `summarise()` has grouped output by 'GEOID'. You can override using the
    ## `.groups` argument.

``` r
nola_grouped
```

    ## # A tibble: 368 × 4
    ## # Groups:   GEOID [184]
    ##    GEOID       sex    sum_est sum_moe
    ##    <chr>       <chr>    <dbl>   <dbl>
    ##  1 22071000100 Female     323   202. 
    ##  2 22071000100 Male       189    92.0
    ##  3 22071000200 Female      84    36.5
    ##  4 22071000200 Male        29    28.8
    ##  5 22071000300 Female      65    37.9
    ##  6 22071000300 Male        62    45.1
    ##  7 22071000400 Female     113    67.4
    ##  8 22071000400 Male        71    43.1
    ##  9 22071000601 Female      73    61.5
    ## 10 22071000601 Male        91    50.3
    ## # ℹ 358 more rows
