…
    ## Simple feature collection with 777 features and 7 fields
    ## Active geometry column: centroid1
    ## Geometry type: POINT
    ## Dimension:     XY
    ## Bounding box:  xmin: -106.6702 ymin: 35.05131 xmax: -106.6702 ymax: 35.05131
    ## Geodetic CRS:  NAD83
    ## # A tibble: 777 × 9
    ##    GEOID1 GEOID2 FULL1_NAME                   FULL2_NAME variable estimate   moe
    ##    <chr>  <chr>  <chr>                        <chr>      <chr>       <dbl> <dbl>
    ##  1 35001  35043  Bernalillo County, New Mexi… Sandoval … MOVEDIN      3019   648
    ##  2 35001  35061  Bernalillo County, New Mexi… Valencia … MOVEDIN      1744   510
    ##  3 35001  35049  Bernalillo County, New Mexi… Santa Fe … MOVEDIN      1300   359
    ##  4 35001  35013  Bernalillo County, New Mexi… Doña Ana … MOVEDIN      1160   497
    ##  5 35001  35031  Bernalillo County, New Mexi… McKinley … MOVEDIN       814   418
    ##  6 35001  35045  Bernalillo County, New Mexi… San Juan … MOVEDIN       799   340
    ##  7 35001  04013  Bernalillo County, New Mexi… Maricopa … MOVEDIN       707   272
    ##  8 35001  06037  Bernalillo County, New Mexi… Los Angel… MOVEDIN       665   289
    ##  9 35001  35057  Bernalillo County, New Mexi… Torrance … MOVEDIN       487   263
    ## 10 35001  35055  Bernalillo County, New Mexi… Taos Coun… MOVEDIN       443   382
    ## # ℹ 767 more rows
    ## # ℹ 2 more variables: centroid1 <POINT [°]>, centroid2 <POINT [°]>
…
