…
``` r
library(osmdata)
```

    ## Data (c) OpenStreetMap contributors, ODbL 1.0. https://www.openstreetmap.org/copyright

``` r
available_tags("amenity")
```

    ## # A tibble: 137 × 2
    ##    Key     Value          
    ##    <chr>   <chr>          
    ##  1 amenity animal_boarding
    ##  2 amenity animal_breeding
    ##  3 amenity animal_shelter 
    ##  4 amenity animal_training
    ##  5 amenity arts_centre    
    ##  6 amenity atm            
    ##  7 amenity baby_hatch     
    ##  8 amenity baking_oven    
    ##  9 amenity bank           
    ## 10 amenity bar            
    ## # ℹ 127 more rows
…
