…
``` r
nm_puma_subset
```

    ## # A tibble: 7,769 × 7
    ##    SERIALNO      SPORDER  WGTP PWGTP  AGEP PUMA  STATE
    ##    <chr>           <dbl> <dbl> <dbl> <dbl> <chr> <chr>
    ##  1 2019GQ0000234       1     0    15    84 00400 35   
    ##  2 2019GQ0000437       1     0    12    33 00400 35   
    ##  3 2019GQ0001188       1     0     1    22 00400 35   
    ##  4 2019GQ0001279       1     0     5    26 00400 35   
    ##  5 2019GQ0003695       1     0     1    94 00400 35   
    ##  6 2019GQ0004797       1     0     3    17 00400 35   
    ##  7 2019GQ0006444       1     0     3    19 00400 35   
    ##  8 2019GQ0007744       1     0    17    19 00400 35   
    ##  9 2019GQ0009077       1     0    15    39 00400 35   
    ## 10 2019GQ0011447       1     0     2    67 00400 35   
    ## # ℹ 7,759 more rows
…
``` r
two_state_puma_subset
```

    ## # A tibble: 13,410 × 7
    ##    SERIALNO      SPORDER  WGTP PWGTP  AGEP PUMA  STATE
    ##    <chr>           <dbl> <dbl> <dbl> <dbl> <chr> <chr>
    ##  1 2019GQ0000234       1     0    15    84 00400 35   
    ##  2 2019GQ0000367       1     0    22    40 00400 04   
    ##  3 2019GQ0000437       1     0    12    33 00400 35   
    ##  4 2019GQ0001188       1     0     1    22 00400 35   
    ##  5 2019GQ0001279       1     0     5    26 00400 35   
    ##  6 2019GQ0002108       1     0     6    31 00400 04   
    ##  7 2019GQ0003276       1     0    21    32 00400 04   
    ##  8 2019GQ0003516       1     0    19    40 00400 04   
    ##  9 2019GQ0003695       1     0     1    94 00400 35   
    ## 10 2019GQ0004548       1     0     3    67 00400 04   
    ## # ℹ 13,400 more rows
