…
    ## Some observations were lost in the join (1285 observations in the shape file).
    ## See `join_failures(...)` for more details.

``` r
nyc_1910
```

    ## Simple feature collection with 704 features and 47 fields
    ## Geometry type: MULTIPOLYGON
    ## Dimension:     XY
    ## Bounding box:  xmin: 1810884 ymin: 544085.4 xmax: 1851324 ymax: 596805.5
    ## Projected CRS: USA_Contiguous_Albers_Equal_Area_Conic
    ## # A tibble: 704 × 48
    ##    GISJOIN  YEAR STATE STATEA COUNTY COUNTYA PRETRACTA TRACTA POSTTRCTA AREANAME
    ##  * <chr>   <dbl> <chr>  <dbl> <chr>  <chr>   <chr>     <chr>  <lgl>     <chr>   
    ##  1 G36006…  1910 New …     36 New Y… 061     B         0002   NA        Tract  …
    ##  2 G36006…  1910 New …     36 New Y… 061     B         0001   NA        Tract  …
    ##  3 G36004…  1910 New …     36 Kings  047     <NA>      0058   NA        Tract  …
    ##  4 G36004…  1910 New …     36 Kings  047     <NA>      0059   NA        Tract  …
    ##  5 G36004…  1910 New …     36 Kings  047     <NA>      0062   NA        Tract  …
    ##  6 G36004…  1910 New …     36 Kings  047     <NA>      0042   NA        Tract  …
    ##  7 G36004…  1910 New …     36 Kings  047     <NA>      0030   NA        Tract  …
    ##  8 G36004…  1910 New …     36 Kings  047     <NA>      0031   NA        Tract  …
    ##  9 G36004…  1910 New …     36 Kings  047     <NA>      0032   NA        Tract  …
    ## 10 G36004…  1910 New …     36 Kings  047     <NA>      0033   NA        Tract  …
    ## # ℹ 694 more rows
    ## # ℹ 38 more variables: A6G001 <dbl>, A6G002 <dbl>, A6G003 <dbl>, A6G004 <dbl>,
    ## #   A6G005 <dbl>, A6G006 <dbl>, A6G007 <dbl>, A6G008 <dbl>, A6G009 <dbl>,
    ## #   A6G010 <dbl>, A6G011 <dbl>, A6G012 <dbl>, A6G013 <dbl>, A6G014 <dbl>,
    ## #   A6G015 <dbl>, A6G016 <dbl>, A6G017 <dbl>, A6G018 <dbl>, A6G019 <dbl>,
    ## #   A6G020 <dbl>, A6G021 <dbl>, A6G022 <dbl>, A6G023 <dbl>, A6G024 <dbl>,
    ## #   A6G025 <dbl>, A60001 <dbl>, A60002 <dbl>, A60003 <dbl>, A60004 <dbl>, …
…
