…
    ## Getting data from the 2016-2020 5-year ACS

``` r
nm_wide
```

    ## # A tibble: 33 × 6
    ##    GEOID NAME                         medincE medincM medageE medageM
    ##    <chr> <chr>                          <dbl>   <dbl>   <dbl>   <dbl>
    ##  1 35003 Catron County, New Mexico      36607    8958    59.4     2.6
    ##  2 35005 Chaves County, New Mexico      46254    2393    36.1     0.3
    ##  3 35006 Cibola County, New Mexico      44731    3783    37.5     0.7
    ##  4 35007 Colfax County, New Mexico      36937    4886    50.3     0.6
    ##  5 35009 Curry County, New Mexico       48903    2442    31.7     0.3
    ##  6 35011 De Baca County, New Mexico     31532   13343    22.2     6.9
    ##  7 35013 Doña Ana County, New Mexico    44024    2292    33.3     0.2
    ##  8 35015 Eddy County, New Mexico        65000    3898    35.4     0.3
    ##  9 35017 Grant County, New Mexico       37453    3245    46.5     0.4
    ## 10 35019 Guadalupe County, New Mexico   31061    5288    43.7     4.6
    ## # ℹ 23 more rows
…
    ## Getting data from the 2020 decennial Census

    ## Using the PL 94-171 Redistricting Data Summary File

    ## Note: 2020 decennial Census data use differential privacy, a technique that
    ## introduces errors into data to preserve respondent confidentiality.
    ## ℹ Small counts should be interpreted with caution.
    ## ℹ See https://www.census.gov/library/fact-sheets/2021/protecting-the-confidentiality-of-the-2020-census-redistricting-data.html for additional guidance.
    ## This message is displayed once per session.

``` r
new_mexico
```

    ## # A tibble: 33 × 4
    ##    GEOID NAME                          variable  value
    ##    <chr> <chr>                         <chr>     <dbl>
    ##  1 35001 Bernalillo County, New Mexico totalpop 676444
    ##  2 35013 Doña Ana County, New Mexico   totalpop 219561
    ##  3 35049 Santa Fe County, New Mexico   totalpop 154823
    ##  4 35043 Sandoval County, New Mexico   totalpop 148834
    ##  5 35045 San Juan County, New Mexico   totalpop 121661
    ##  6 35061 Valencia County, New Mexico   totalpop  76205
    ##  7 35025 Lea County, New Mexico        totalpop  74455
    ##  8 35031 McKinley County, New Mexico   totalpop  72902
    ##  9 35035 Otero County, New Mexico      totalpop  67839
    ## 10 35005 Chaves County, New Mexico     totalpop  65157
    ## # ℹ 23 more rows
…
    ## Getting data from the 2016-2020 5-year ACS

``` r
nm_income
```

    ## # A tibble: 33 × 5
    ##    GEOID NAME       variable estimate   moe
    ##    <chr> <chr>      <chr>       <dbl> <dbl>
    ##  1 35001 Bernalillo hhincome    54308   929
    ##  2 35003 Catron     hhincome    36607  8958
    ##  3 35005 Chaves     hhincome    46254  2393
    ##  4 35006 Cibola     hhincome    44731  3783
    ##  5 35007 Colfax     hhincome    36937  4886
    ##  6 35009 Curry      hhincome    48903  2442
    ##  7 35011 De Baca    hhincome    31532 13343
    ##  8 35013 Doña Ana   hhincome    44024  2292
    ##  9 35015 Eddy       hhincome    65000  3898
    ## 10 35017 Grant      hhincome    37453  3245
    ## # ℹ 23 more rows
…
## Error bars

``` r
nm_income |> 
  arrange(desc(moe))
```

    ## # A tibble: 33 × 5
    ##    GEOID NAME      variable estimate   moe
    ##    <chr> <chr>     <chr>       <dbl> <dbl>
    ##  1 35011 De Baca   hhincome    31532 13343
    ##  2 35033 Mora      hhincome    29458  9207
    ##  3 35003 Catron    hhincome    36607  8958
    ##  4 35059 Union     hhincome    35484  8155
    ##  5 35023 Hidalgo   hhincome    44722  7506
    ##  6 35021 Harding   hhincome    32500  7357
    ##  7 35057 Torrance  hhincome    38240  6353
    ##  8 35051 Sierra    hhincome    33873  5975
    ##  9 35019 Guadalupe hhincome    31061  5288
    ## 10 35053 Socorro   hhincome    40297  5122
    ## # ℹ 23 more rows
…
``` r
nm <- get_estimates(
  geography = "state", 
  state = "NM", 
  product = "characteristics",
  breakdown = c("SEX", "AGEGROUP"),
  breakdown_labels = T,
  year = 2019
)
nm
```

    ## # A tibble: 96 × 5
    ##    GEOID NAME         value SEX        AGEGROUP          
    ##    <chr> <chr>        <dbl> <chr>      <fct>             
    ##  1 35    New Mexico 2096829 Both sexes All ages          
    ##  2 35    New Mexico  120986 Both sexes Age 0 to 4 years  
    ##  3 35    New Mexico  132779 Both sexes Age 5 to 9 years  
    ##  4 35    New Mexico 1037432 Male       All ages          
    ##  5 35    New Mexico   67810 Male       Age 5 to 9 years  
    ##  6 35    New Mexico 1059397 Female     All ages          
    ##  7 35    New Mexico   64969 Female     Age 5 to 9 years  
    ##  8 35    New Mexico   24468 Female     Age 80 to 84 years
    ##  9 35    New Mexico  139489 Both sexes Age 10 to 14 years
    ## 10 35    New Mexico   70811 Male       Age 10 to 14 years
    ## # ℹ 86 more rows
> Processing
>
> - remove “Both sexes” rows
> - remove rows for “All ages”
> - to achieve the mirroring, convert all Male values to negative

``` r
nm_filtered <- nm |> 
  filter(str_detect(AGEGROUP, "^Age"),
         SEX != "Both sexes") |> 
  mutate(value = ifelse(SEX == "Male", -value, value))
nm_filtered
```

    ## # A tibble: 36 × 5
    ##    GEOID NAME        value SEX    AGEGROUP          
    ##    <chr> <chr>       <dbl> <chr>  <fct>             
    ##  1 35    New Mexico -67810 Male   Age 5 to 9 years  
    ##  2 35    New Mexico  64969 Female Age 5 to 9 years  
    ##  3 35    New Mexico  24468 Female Age 80 to 84 years
    ##  4 35    New Mexico -70811 Male   Age 10 to 14 years
    ##  5 35    New Mexico -70557 Male   Age 15 to 19 years
    ##  6 35    New Mexico  68678 Female Age 10 to 14 years
    ##  7 35    New Mexico  67901 Female Age 15 to 19 years
    ##  8 35    New Mexico -72869 Male   Age 20 to 24 years
    ##  9 35    New Mexico  67132 Female Age 20 to 24 years
    ## 10 35    New Mexico -71278 Male   Age 30 to 34 years
    ## # ℹ 26 more rows
…
    ## Getting data from the 2016-2020 5-year ACS

``` r
housing_val
```

    ## # A tibble: 366 × 5
    ##    GEOID       NAME                                      variable estimate   moe
    ##    <chr>       <chr>                                     <chr>       <dbl> <dbl>
    ##  1 35001000107 Census Tract 1.07, Bernalillo County, Ne… B25077_…   371700 17742
    ##  2 35001000108 Census Tract 1.08, Bernalillo County, Ne… B25077_…   236100 11071
    ##  3 35001000109 Census Tract 1.09, Bernalillo County, Ne… B25077_…   261500 10628
    ##  4 35001000110 Census Tract 1.10, Bernalillo County, Ne… B25077_…   217800  9528
    ##  5 35001000111 Census Tract 1.11, Bernalillo County, Ne… B25077_…   226100  8486
    ##  6 35001000112 Census Tract 1.12, Bernalillo County, Ne… B25077_…   283500 18244
    ##  7 35001000113 Census Tract 1.13, Bernalillo County, Ne… B25077_…   201800 17349
    ##  8 35001000114 Census Tract 1.14, Bernalillo County, Ne… B25077_…   167200  6364
    ##  9 35001000115 Census Tract 1.15, Bernalillo County, Ne… B25077_…   165700  3514
    ## 10 35001000116 Census Tract 1.16, Bernalillo County, Ne… B25077_…   223300 12353
    ## # ℹ 356 more rows

``` r
housing_val2 <- housing_val |> 
  separate(
    NAME, into = c("tract","county","state"),
    sep = ", "
  )
housing_val2
```

    ## # A tibble: 366 × 7
    ##    GEOID       tract             county            state variable estimate   moe
    ##    <chr>       <chr>             <chr>             <chr> <chr>       <dbl> <dbl>
    ##  1 35001000107 Census Tract 1.07 Bernalillo County New … B25077_…   371700 17742
    ##  2 35001000108 Census Tract 1.08 Bernalillo County New … B25077_…   236100 11071
    ##  3 35001000109 Census Tract 1.09 Bernalillo County New … B25077_…   261500 10628
    ##  4 35001000110 Census Tract 1.10 Bernalillo County New … B25077_…   217800  9528
    ##  5 35001000111 Census Tract 1.11 Bernalillo County New … B25077_…   226100  8486
    ##  6 35001000112 Census Tract 1.12 Bernalillo County New … B25077_…   283500 18244
    ##  7 35001000113 Census Tract 1.13 Bernalillo County New … B25077_…   201800 17349
    ##  8 35001000114 Census Tract 1.14 Bernalillo County New … B25077_…   167200  6364
    ##  9 35001000115 Census Tract 1.15 Bernalillo County New … B25077_…   165700  3514
    ## 10 35001000116 Census Tract 1.16 Bernalillo County New … B25077_…   223300 12353
    ## # ℹ 356 more rows
…
  product = "characteristics",
  breakdown = c("SEX", "AGEGROUP"),
  breakdown_labels = TRUE,
  year = 2019
) %>%
  filter(str_detect(AGEGROUP, "^Age"),
         SEX != "Both sexes") %>%
  group_by(NAME) %>%
  mutate(prop = value / sum(value, na.rm = TRUE)) %>%
  ungroup() %>%
  mutate(prop = ifelse(SEX == "Male", -prop, prop))
nm_pyramid_data
```

    ## # A tibble: 1,188 × 6
    ##    GEOID NAME                       value SEX   AGEGROUP              prop
    ##    <chr> <chr>                      <dbl> <chr> <fct>                <dbl>
    ##  1 35023 Hidalgo County, New Mexico   138 Male  Age 0 to 4 years   -0.0329
    ##  2 35023 Hidalgo County, New Mexico   119 Male  Age 5 to 9 years   -0.0283
    ##  3 35023 Hidalgo County, New Mexico   139 Male  Age 10 to 14 years -0.0331
    ##  4 35023 Hidalgo County, New Mexico   124 Male  Age 20 to 24 years -0.0295
    ##  5 35023 Hidalgo County, New Mexico   148 Male  Age 25 to 29 years -0.0353
    ##  6 35023 Hidalgo County, New Mexico   113 Male  Age 30 to 34 years -0.0269
    ##  7 35023 Hidalgo County, New Mexico    81 Male  Age 40 to 44 years -0.0193
    ##  8 35023 Hidalgo County, New Mexico    91 Male  Age 45 to 49 years -0.0217
    ##  9 35023 Hidalgo County, New Mexico   151 Male  Age 50 to 54 years -0.0360
    ## 10 35023 Hidalgo County, New Mexico   161 Male  Age 55 to 59 years -0.0384
    ## # ℹ 1,178 more rows

``` r
nm_pyramid_data <- nm_pyramid_data |> 
  separate(
    NAME, into = c("county","state"),
    sep = ", "
  )
nm_pyramid_data
```

    ## # A tibble: 1,188 × 7
    ##    GEOID county         state      value SEX   AGEGROUP              prop
    ##    <chr> <chr>          <chr>      <dbl> <chr> <fct>                <dbl>
    ##  1 35023 Hidalgo County New Mexico   138 Male  Age 0 to 4 years   -0.0329
    ##  2 35023 Hidalgo County New Mexico   119 Male  Age 5 to 9 years   -0.0283
    ##  3 35023 Hidalgo County New Mexico   139 Male  Age 10 to 14 years -0.0331
    ##  4 35023 Hidalgo County New Mexico   124 Male  Age 20 to 24 years -0.0295
    ##  5 35023 Hidalgo County New Mexico   148 Male  Age 25 to 29 years -0.0353
    ##  6 35023 Hidalgo County New Mexico   113 Male  Age 30 to 34 years -0.0269
    ##  7 35023 Hidalgo County New Mexico    81 Male  Age 40 to 44 years -0.0193
    ##  8 35023 Hidalgo County New Mexico    91 Male  Age 45 to 49 years -0.0217
    ##  9 35023 Hidalgo County New Mexico   151 Male  Age 50 to 54 years -0.0360
    ## 10 35023 Hidalgo County New Mexico   161 Male  Age 55 to 59 years -0.0384
    ## # ℹ 1,178 more rows

``` r
nm_pyramid_data <- nm_pyramid_data |> 
  mutate(county = str_remove(county, " County$"))
nm_pyramid_data
```

    ## # A tibble: 1,188 × 7
    ##    GEOID county  state      value SEX   AGEGROUP              prop
    ##    <chr> <chr>   <chr>      <dbl> <chr> <fct>                <dbl>
    ##  1 35023 Hidalgo New Mexico   138 Male  Age 0 to 4 years   -0.0329
    ##  2 35023 Hidalgo New Mexico   119 Male  Age 5 to 9 years   -0.0283
    ##  3 35023 Hidalgo New Mexico   139 Male  Age 10 to 14 years -0.0331
    ##  4 35023 Hidalgo New Mexico   124 Male  Age 20 to 24 years -0.0295
    ##  5 35023 Hidalgo New Mexico   148 Male  Age 25 to 29 years -0.0353
    ##  6 35023 Hidalgo New Mexico   113 Male  Age 30 to 34 years -0.0269
    ##  7 35023 Hidalgo New Mexico    81 Male  Age 40 to 44 years -0.0193
    ##  8 35023 Hidalgo New Mexico    91 Male  Age 45 to 49 years -0.0217
    ##  9 35023 Hidalgo New Mexico   151 Male  Age 50 to 54 years -0.0360
    ## 10 35023 Hidalgo New Mexico   161 Male  Age 55 to 59 years -0.0384
    ## # ℹ 1,178 more rows
…
