…
``` r
bernalillo_race
```

    ## Simple feature collection with 880 features and 6 fields
    ## Geometry type: POLYGON
    ## Dimension:     XY
    ## Bounding box:  xmin: -107.1972 ymin: 34.86928 xmax: -106.1497 ymax: 35.21946
    ## Geodetic CRS:  NAD83
    ## # A tibble: 880 × 7
    ##    GEOID    NAME  variable value summary_value                  geometry percent
    ##  * <chr>    <chr> <chr>    <dbl>         <dbl>             <POLYGON [°]>   <dbl>
    ##  1 3500100… Cens… Hispanic  2188          4368 ((-106.6277 35.10917, -1…   50.1 
    ##  2 3500100… Cens… White     1122          4368 ((-106.6277 35.10917, -1…   25.7 
    ##  3 3500100… Cens… Black      197          4368 ((-106.6277 35.10917, -1…    4.51
    ##  4 3500100… Cens… Native     581          4368 ((-106.6277 35.10917, -1…   13.3 
    ##  5 3500100… Cens… Asian       93          4368 ((-106.6277 35.10917, -1…    2.13
    ##  6 3500100… Cens… Hispanic  1717          4189 ((-106.5064 35.07402, -1…   41.0 
    ##  7 3500100… Cens… White     1598          4189 ((-106.5064 35.07402, -1…   38.1 
    ##  8 3500100… Cens… Black      215          4189 ((-106.5064 35.07402, -1…    5.13
    ##  9 3500100… Cens… Native     316          4189 ((-106.5064 35.07402, -1…    7.54
    ## 10 3500100… Cens… Asian      142          4189 ((-106.5064 35.07402, -1…    3.39
    ## # ℹ 870 more rows
### Chorpleth with tmap

``` r
library(tmap)
bernalillo_hisp <- bernalillo_race |> 
  filter(variable == "Hispanic")
bernalillo_hisp
```

    ## Simple feature collection with 176 features and 6 fields
    ## Geometry type: POLYGON
    ## Dimension:     XY
    ## Bounding box:  xmin: -107.1972 ymin: 34.86928 xmax: -106.1497 ymax: 35.21946
    ## Geodetic CRS:  NAD83
    ## # A tibble: 176 × 7
    ##    GEOID    NAME  variable value summary_value                  geometry percent
    ##  * <chr>    <chr> <chr>    <dbl>         <dbl>             <POLYGON [°]>   <dbl>
    ##  1 3500100… Cens… Hispanic  2188          4368 ((-106.6277 35.10917, -1…    50.1
    ##  2 3500100… Cens… Hispanic  1717          4189 ((-106.5064 35.07402, -1…    41.0
    ##  3 3500100… Cens… Hispanic  1277          2906 ((-106.5864 35.12329, -1…    43.9
    ##  4 3500100… Cens… Hispanic  2472          4319 ((-106.7146 35.11297, -1…    57.2
    ##  5 3500100… Cens… Hispanic   908          2785 ((-106.5154 35.10146, -1…    32.6
    ##  6 3500100… Cens… Hispanic  5703          6907 ((-106.7601 35.0554, -10…    82.6
    ##  7 3500100… Cens… Hispanic   978          2925 ((-106.5156 35.10887, -1…    33.4
    ##  8 3500100… Cens… Hispanic   523          2760 ((-106.5174 35.14188, -1…    18.9
    ##  9 3500100… Cens… Hispanic  2115          5042 ((-106.5328 35.04683, -1…    41.9
    ## 10 3500100… Cens… Hispanic  6275          8660 ((-106.7563 35.03995, -1…    72.5
    ## # ℹ 166 more rows
…
``` r
bernalillo_race
```

    ## Simple feature collection with 880 features and 6 fields
    ## Geometry type: POLYGON
    ## Dimension:     XY
    ## Bounding box:  xmin: -107.1972 ymin: 34.86928 xmax: -106.1497 ymax: 35.21946
    ## Geodetic CRS:  NAD83
    ## # A tibble: 880 × 7
    ##    GEOID    NAME  variable value summary_value                  geometry percent
    ##  * <chr>    <chr> <chr>    <dbl>         <dbl>             <POLYGON [°]>   <dbl>
    ##  1 3500100… Cens… Hispanic  2188          4368 ((-106.6277 35.10917, -1…   50.1 
    ##  2 3500100… Cens… White     1122          4368 ((-106.6277 35.10917, -1…   25.7 
    ##  3 3500100… Cens… Black      197          4368 ((-106.6277 35.10917, -1…    4.51
    ##  4 3500100… Cens… Native     581          4368 ((-106.6277 35.10917, -1…   13.3 
    ##  5 3500100… Cens… Asian       93          4368 ((-106.6277 35.10917, -1…    2.13
    ##  6 3500100… Cens… Hispanic  1717          4189 ((-106.5064 35.07402, -1…   41.0 
    ##  7 3500100… Cens… White     1598          4189 ((-106.5064 35.07402, -1…   38.1 
    ##  8 3500100… Cens… Black      215          4189 ((-106.5064 35.07402, -1…    5.13
    ##  9 3500100… Cens… Native     316          4189 ((-106.5064 35.07402, -1…    7.54
    ## 10 3500100… Cens… Asian      142          4189 ((-106.5064 35.07402, -1…    3.39
    ## # ℹ 870 more rows
…
