…
``` r
nm_pums
```

    ## # A tibble: 95,676 × 9
    ##    SERIALNO      SPORDER  WGTP PWGTP  AGEP STATE SEX   STATE_label   SEX_label
    ##    <chr>           <dbl> <dbl> <dbl> <dbl> <chr> <chr> <ord>         <ord>    
    ##  1 2020HU0869372       1     3     3    49 35    2     New Mexico/NM Female   
    ##  2 2020HU0869372       2     3     1    37 35    2     New Mexico/NM Female   
    ##  3 2020HU0869850       1    58    57    76 35    1     New Mexico/NM Male     
    ##  4 2020HU0869850       2    58    47    69 35    2     New Mexico/NM Female   
    ##  5 2020HU0869872       1     5     6    46 35    1     New Mexico/NM Male     
    ##  6 2020HU0870204       1    28    28    37 35    2     New Mexico/NM Female   
    ##  7 2020HU0870204       2    28   131    37 35    1     New Mexico/NM Male     
    ##  8 2020HU0870204       3    28   140    12 35    2     New Mexico/NM Female   
    ##  9 2020HU0870204       4    28   119     7 35    1     New Mexico/NM Male     
    ## 10 2020HU0870541       1   118   119    32 35    1     New Mexico/NM Male     
    ## # ℹ 95,666 more rows
…
    ## # A tibble: 1 × 1
    ##         n
    ##     <dbl>
    ## 1 2114768

> Tabulate by age and sex

``` r
nm_pums |> 
  count(SEX_label, AGEP, wt = PWGTP)
```

    ## # A tibble: 186 × 3
    ##    SEX_label  AGEP     n
    ##    <ord>     <dbl> <dbl>
    ##  1 Male          0 11109
    ##  2 Male          1  9397
    ##  3 Male          2 12895
    ##  4 Male          3 12741
    ##  5 Male          4 12269
    ##  6 Male          5 12586
    ##  7 Male          6 11484
    ##  8 Male          7 13809
    ##  9 Male          8 13446
    ## 10 Male          9 13535
    ## # ℹ 176 more rows
…
``` r
nm_hh_data
```

    ## # A tibble: 8,573 × 11
    ##    SERIALNO      SPORDER  WGTP PWGTP GRPIP PUMA  STATE TEN   HHT   HISP  RAC1P
    ##    <chr>           <dbl> <dbl> <dbl> <dbl> <chr> <chr> <chr> <chr> <chr> <chr>
    ##  1 2022HU0589264       1    69    69    13 00701 35    3     3     01    9    
    ##  2 2022HU0590319       1    12    12    36 01002 35    3     1     01    1    
    ##  3 2022HU0590685       1     4     4    22 00500 35    3     5     01    9    
    ##  4 2022HU0590801       1    48    48    34 00900 35    3     1     01    1    
    ##  5 2022HU0590906       1    32    31    47 00900 35    3     2     02    8    
    ##  6 2022HU0591042       1   126   125   101 01002 35    3     6     02    1    
    ##  7 2022HU0591949       1     4     4     7 00100 35    3     1     01    3    
    ##  8 2022HU0592446       1    33    32    36 00705 35    3     3     24    9    
    ##  9 2022HU0592775       1     2     2    18 00100 35    3     6     01    3    
    ## 10 2022HU0592802       1    21    22    26 00704 35    3     3     01    2    
    ## # ℹ 8,563 more rows
…
